
{
"items": [
    {
        "itemCode": "1002", 
        "itemName": "Apple", 
        "weighted": true, 
        "stock": 204, 
        "mrp": 200.00, 
        "salePrice": 98.00, 
        "purchasePrice": 80.50, 
        "gstPerctange": 0.0, 
        "hsnCode": "870410", 
        "rackId": "F01R02S01", 
        "lastUpdateTime": 133456987 
    },
    {
        "itemCode": "1003", 
        "itemName": "Orange", 
        "weighted": true, 
        "stock": 200, 
        "mrp": 50.00, 
        "salePrice": 40.00, 
        "purchasePrice": 38.50, 
        "gstPerctange": 0.0, 
        "hsnCode": "870410", 
        "rackId": "F01R02S01", 
        "lastUpdateTime": 133456998 
    }
    ],
    "totalItems": 350, 
    "currentPage": 1, 
    "perPage": 100, 
    "totalPages": 4 
}
